name,tag,weight,created_at
Africa Town Hall,,7,2021
Ambassadors Guild,,5,2021
Bridge Builders,,7,2021
Cardano AIM,,14,2021
Catalyst School,,7,2021
Catalyst Swarm,,23,2021
CC Admin Team,,6,2021
Community Governance Oversight,,10,2021
Eastern Town Hall,,4,2021
FLUID7,,14,2021
Gimbalabs,,5,2021
Innovatio,,3,2021
LATAM Town Hall,,9,2021
Lidonation,,4,2021
Loxe,,3,2021
NFT Guild,,5,2021
Pace,,5,2021
Pacific Town Hall,,7,2021
QA DAO,,17,2021
SANADA,,8,2021
Treasurers Guild,,7,2021
WADA,,12,2021
Algae Token,,2,2022
Argus NFT,,4,2022
BlockwareLabs,,3,2022
Cardano4Climate,,3,2021
Dale,,2,2022
DLT 360,,2,2021
KWENCH,,2,2022
Landano,,3,2022
Nature Blocks,,3,2022
Playermint,,3,2021
Secret Decks,,3,2021
SPOCRA,,4,2021
Catalyst Circle,,2,2021
